^E:\WINDOWS\PROJECTS\OPENGL\CIRCLE-COLLISION\CIRCLECOLLISION\DEBUG\CAMERA.OBJ|E:\WINDOWS\PROJECTS\OPENGL\CIRCLE-COLLISION\CIRCLECOLLISION\DEBUG\CIRCLE.OBJ|E:\WINDOWS\PROJECTS\OPENGL\CIRCLE-COLLISION\CIRCLECOLLISION\DEBUG\CUBE.OBJ|E:\WINDOWS\PROJECTS\OPENGL\CIRCLE-COLLISION\CIRCLECOLLISION\DEBUG\GAME.OBJ|E:\WINDOWS\PROJECTS\OPENGL\CIRCLE-COLLISION\CIRCLECOLLISION\DEBUG\GLSLSHADER.OBJ|E:\WINDOWS\PROJECTS\OPENGL\CIRCLE-COLLISION\CIRCLECOLLISION\DEBUG\INPUTHANDLER.OBJ|E:\WINDOWS\PROJECTS\OPENGL\CIRCLE-COLLISION\CIRCLECOLLISION\DEBUG\MAIN.OBJ|E:\WINDOWS\PROJECTS\OPENGL\CIRCLE-COLLISION\CIRCLECOLLISION\DEBUG\MESH.OBJ|E:\WINDOWS\PROJECTS\OPENGL\CIRCLE-COLLISION\CIRCLECOLLISION\DEBUG\SAT.OBJ|E:\WINDOWS\PROJECTS\OPENGL\CIRCLE-COLLISION\CIRCLECOLLISION\DEBUG\WINDOW.OBJ
E:\WINDOWS\PROJECTS\OPENGL\CIRCLE-COLLISION\DEPS\LIB\GLEW32.LIB
E:\WINDOWS\PROJECTS\OPENGL\CIRCLE-COLLISION\DEPS\LIB\SDL2.LIB
E:\WINDOWS\PROJECTS\OPENGL\CIRCLE-COLLISION\DEPS\LIB\SDL2MAIN.LIB
E:\WINDOWS\PROJECTS\OPENGL\CIRCLE-COLLISION\DEPS\LIB\SDL2TEST.LIB
C:\PROGRAM FILES (X86)\WINDOWS KITS\8.1\LIB\WINV6.3\UM\X86\OPENGL32.LIB
C:\PROGRAM FILES (X86)\WINDOWS KITS\8.1\LIB\WINV6.3\UM\X86\KERNEL32.LIB
C:\PROGRAM FILES (X86)\WINDOWS KITS\8.1\LIB\WINV6.3\UM\X86\USER32.LIB
C:\PROGRAM FILES (X86)\WINDOWS KITS\8.1\LIB\WINV6.3\UM\X86\GDI32.LIB
C:\PROGRAM FILES (X86)\WINDOWS KITS\8.1\LIB\WINV6.3\UM\X86\WINSPOOL.LIB
C:\PROGRAM FILES (X86)\WINDOWS KITS\8.1\LIB\WINV6.3\UM\X86\COMDLG32.LIB
C:\PROGRAM FILES (X86)\WINDOWS KITS\8.1\LIB\WINV6.3\UM\X86\ADVAPI32.LIB
C:\PROGRAM FILES (X86)\WINDOWS KITS\8.1\LIB\WINV6.3\UM\X86\SHELL32.LIB
C:\PROGRAM FILES (X86)\WINDOWS KITS\8.1\LIB\WINV6.3\UM\X86\OLE32.LIB
C:\PROGRAM FILES (X86)\WINDOWS KITS\8.1\LIB\WINV6.3\UM\X86\OLEAUT32.LIB
C:\PROGRAM FILES (X86)\WINDOWS KITS\8.1\LIB\WINV6.3\UM\X86\UUID.LIB
C:\PROGRAM FILES (X86)\WINDOWS KITS\8.1\LIB\WINV6.3\UM\X86\ODBC32.LIB
C:\PROGRAM FILES (X86)\WINDOWS KITS\8.1\LIB\WINV6.3\UM\X86\ODBCCP32.LIB
E:\WINDOWS\PROJECTS\OPENGL\CIRCLE-COLLISION\CIRCLECOLLISION\DEBUG\CAMERA.OBJ
E:\WINDOWS\PROJECTS\OPENGL\CIRCLE-COLLISION\CIRCLECOLLISION\DEBUG\CIRCLE.OBJ
E:\WINDOWS\PROJECTS\OPENGL\CIRCLE-COLLISION\CIRCLECOLLISION\DEBUG\CUBE.OBJ
E:\WINDOWS\PROJECTS\OPENGL\CIRCLE-COLLISION\CIRCLECOLLISION\DEBUG\GAME.OBJ
E:\WINDOWS\PROJECTS\OPENGL\CIRCLE-COLLISION\CIRCLECOLLISION\DEBUG\GLSLSHADER.OBJ
E:\WINDOWS\PROJECTS\OPENGL\CIRCLE-COLLISION\CIRCLECOLLISION\DEBUG\INPUTHANDLER.OBJ
E:\WINDOWS\PROJECTS\OPENGL\CIRCLE-COLLISION\CIRCLECOLLISION\DEBUG\MAIN.OBJ
E:\WINDOWS\PROJECTS\OPENGL\CIRCLE-COLLISION\CIRCLECOLLISION\DEBUG\MESH.OBJ
E:\WINDOWS\PROJECTS\OPENGL\CIRCLE-COLLISION\CIRCLECOLLISION\DEBUG\SAT.OBJ
E:\WINDOWS\PROJECTS\OPENGL\CIRCLE-COLLISION\CIRCLECOLLISION\DEBUG\WINDOW.OBJ
C:\WINDOWS\SYSTEM32\TZRES.DLL
C:\WINDOWS\GLOBALIZATION\SORTING\SORTDEFAULT.NLS
C:\PROGRAM FILES (X86)\MICROSOFT VISUAL STUDIO 12.0\VC\LIB\MSVCPRTD.LIB
C:\PROGRAM FILES (X86)\MICROSOFT VISUAL STUDIO 12.0\VC\LIB\MSVCRTD.LIB
C:\PROGRAM FILES (X86)\MICROSOFT VISUAL STUDIO 12.0\VC\LIB\OLDNAMES.LIB
C:\PROGRAM FILES (X86)\MICROSOFT VISUAL STUDIO 12.0\VC\LIB\MSVCRT.LIB
